Retrieve and Parse Meta Ad Targeting Data • metatargetr
…
"7": Last 7 days.

"30": Last 30 days.

"90": Last 90 days.

base_url (Character, default: "https://github.com/favstats/meta_ad_targeting/releases/expanded_assets/"):

The base URL for the GitHub repository hosting the targeting data.

# Retrieve metadata for Germany for the last 30 days
metadata <- get_targeting_metadata("DE", "30")

print(metadata)
#> # A tibble: 695 × 3
#>    cntry ds         tframe      
#>    <chr> <chr>      <chr>       
#>  1 DE    2026-02-15 last_30_days
#>  2 DE    2026-02-14 last_30_days
#>  3 DE    2026-02-13 last_30_days
#>  4 DE    2026-02-12 last_30_days
#>  5 DE    2026-02-11 last_30_days
#>  6 DE    2026-02-10 last_30_days
#>  7 DE    2026-02-09 last_30_days
#>  8 DE    2026-02-08 last_30_days
#>  9 DE    2026-02-07 last_30_days
#> 10 DE    2026-02-06 last_30_days
#> # ℹ 685 more rows
…
