…
  Character. The base URL for the GitHub repository. Defaults to
  `"https://github.com/favstats/meta_ad_targeting/releases/"`.

## Value

A data frame containing metadata about available targeting data,
including file names, sizes, timestamps, and tags.

## Examples

``` r
# Retrieve metadata for Germany for the last 30 days
metadata <- get_targeting_metadata("DE", "30")
print(metadata)
#> # A tibble: 672 × 3
#>    cntry ds         tframe      
#>    <chr> <chr>      <chr>       
#>  1 DE    2026-01-23 last_30_days
#>  2 DE    2026-01-22 last_30_days
#>  3 DE    2026-01-21 last_30_days
#>  4 DE    2026-01-20 last_30_days
#>  5 DE    2026-01-19 last_30_days
#>  6 DE    2026-01-18 last_30_days
#>  7 DE    2026-01-17 last_30_days
#>  8 DE    2026-01-16 last_30_days
#>  9 DE    2026-01-15 last_30_days
#> 10 DE    2026-01-14 last_30_days
#> # ℹ 662 more rows
```
