Retrieve Metadata for Targeting Data — get_targeting_metadata • metatargetr
…
base_url
Character. The base URL for the GitHub repository. Defaults to
"https://github.com/favstats/meta_ad_targeting/releases/".

    Value

    A data frame containing metadata about available targeting data,
including file names, sizes, timestamps, and tags.

    Examples

# Retrieve metadata for Germany for the last 30 days
metadata <- get_targeting_metadata("DE", "30")
print(metadata)
#> # A tibble: 696 × 3
#>    cntry ds         tframe      
#>    <chr> <chr>      <chr>       
#>  1 DE    2026-02-16 last_30_days
#>  2 DE    2026-02-15 last_30_days
#>  3 DE    2026-02-14 last_30_days
#>  4 DE    2026-02-13 last_30_days
#>  5 DE    2026-02-12 last_30_days
#>  6 DE    2026-02-11 last_30_days
#>  7 DE    2026-02-10 last_30_days
#>  8 DE    2026-02-09 last_30_days
#>  9 DE    2026-02-08 last_30_days
#> 10 DE    2026-02-07 last_30_days
#> # ℹ 686 more rows
…
